PCBNEW-LibModule-V1  2021-06-16 15:22:09
# encoding utf-8
Units mm
$INDEX
FBB04004F24S1003K6M
$EndINDEX
$MODULE FBB04004F24S1003K6M
Po 0 0 0 15 60ca0911 00000000 ~~
Li FBB04004F24S1003K6M
Cd FBB04004-F24S1003K6M-1
Kw Connector
Sc 0
At SMD
AR 
Op 0 0 0
T0 0.000 -0 1.27 1.27 0 0.254 N V 21 N "J**"
T1 0.000 -0 1.27 1.27 0 0.254 N I 21 N "FBB04004F24S1003K6M"
DS -3.65 1.1 3.65 1.1 0.2 24
DS 3.65 1.1 3.65 -1.1 0.2 24
DS 3.65 -1.1 -3.65 -1.1 0.2 24
DS -3.65 -1.1 -3.65 1.1 0.2 24
DS -4.65 -2.45 4.65 -2.45 0.1 24
DS 4.65 -2.45 4.65 2.45 0.1 24
DS 4.65 2.45 -4.65 2.45 0.1 24
DS -4.65 2.45 -4.65 -2.45 0.1 24
DS -3.65 0.1 -3.65 -0.1 0.1 21
DS 3.65 0.1 3.65 -0.1 0.1 21
$PAD
Po -2.200 1.2
Sh "1" R 0.230 0.500 0 0 0
At SMD N 00888000
Ne 0 ""
$EndPAD
$PAD
Po -2.200 -1.2
Sh "2" R 0.230 0.500 0 0 0
At SMD N 00888000
Ne 0 ""
$EndPAD
$PAD
Po -1.800 1.2
Sh "3" R 0.230 0.500 0 0 0
At SMD N 00888000
Ne 0 ""
$EndPAD
$PAD
Po -1.800 -1.2
Sh "4" R 0.230 0.500 0 0 0
At SMD N 00888000
Ne 0 ""
$EndPAD
$PAD
Po -1.400 1.2
Sh "5" R 0.230 0.500 0 0 0
At SMD N 00888000
Ne 0 ""
$EndPAD
$PAD
Po -1.400 -1.2
Sh "6" R 0.230 0.500 0 0 0
At SMD N 00888000
Ne 0 ""
$EndPAD
$PAD
Po -1.000 1.2
Sh "7" R 0.230 0.500 0 0 0
At SMD N 00888000
Ne 0 ""
$EndPAD
$PAD
Po -1.000 -1.2
Sh "8" R 0.230 0.500 0 0 0
At SMD N 00888000
Ne 0 ""
$EndPAD
$PAD
Po -0.600 1.2
Sh "9" R 0.230 0.500 0 0 0
At SMD N 00888000
Ne 0 ""
$EndPAD
$PAD
Po -0.600 -1.2
Sh "10" R 0.230 0.500 0 0 0
At SMD N 00888000
Ne 0 ""
$EndPAD
$PAD
Po -0.200 1.2
Sh "11" R 0.230 0.500 0 0 0
At SMD N 00888000
Ne 0 ""
$EndPAD
$PAD
Po -0.200 -1.2
Sh "12" R 0.230 0.500 0 0 0
At SMD N 00888000
Ne 0 ""
$EndPAD
$PAD
Po 0.200 1.2
Sh "13" R 0.230 0.500 0 0 0
At SMD N 00888000
Ne 0 ""
$EndPAD
$PAD
Po 0.200 -1.2
Sh "14" R 0.230 0.500 0 0 0
At SMD N 00888000
Ne 0 ""
$EndPAD
$PAD
Po 0.600 1.2
Sh "15" R 0.230 0.500 0 0 0
At SMD N 00888000
Ne 0 ""
$EndPAD
$PAD
Po 0.600 -1.2
Sh "16" R 0.230 0.500 0 0 0
At SMD N 00888000
Ne 0 ""
$EndPAD
$PAD
Po 1.000 1.2
Sh "17" R 0.230 0.500 0 0 0
At SMD N 00888000
Ne 0 ""
$EndPAD
$PAD
Po 1.000 -1.2
Sh "18" R 0.230 0.500 0 0 0
At SMD N 00888000
Ne 0 ""
$EndPAD
$PAD
Po 1.400 1.2
Sh "19" R 0.230 0.500 0 0 0
At SMD N 00888000
Ne 0 ""
$EndPAD
$PAD
Po 1.400 -1.2
Sh "20" R 0.230 0.500 0 0 0
At SMD N 00888000
Ne 0 ""
$EndPAD
$PAD
Po 1.800 1.2
Sh "21" R 0.230 0.500 0 0 0
At SMD N 00888000
Ne 0 ""
$EndPAD
$PAD
Po 1.800 -1.2
Sh "22" R 0.230 0.500 0 0 0
At SMD N 00888000
Ne 0 ""
$EndPAD
$PAD
Po 2.200 1.2
Sh "23" R 0.230 0.500 0 0 0
At SMD N 00888000
Ne 0 ""
$EndPAD
$PAD
Po 2.200 -1.2
Sh "24" R 0.230 0.500 0 0 0
At SMD N 00888000
Ne 0 ""
$EndPAD
$PAD
Po -3.200 0.99
Sh "MP1" R 0.900 0.920 0 0 0
At SMD N 00888000
Ne 0 ""
$EndPAD
$PAD
Po 3.200 0.99
Sh "MP2" R 0.900 0.920 0 0 0
At SMD N 00888000
Ne 0 ""
$EndPAD
$PAD
Po 3.200 -0.99
Sh "MP3" R 0.900 0.920 0 0 0
At SMD N 00888000
Ne 0 ""
$EndPAD
$PAD
Po -3.200 -0.99
Sh "MP4" R 0.900 0.920 0 0 0
At SMD N 00888000
Ne 0 ""
$EndPAD
$EndMODULE FBB04004F24S1003K6M
$EndLIBRARY
