PCBNEW-LibModule-V1  2021-06-16 15:23:05
# encoding utf-8
Units mm
$INDEX
FBB04004F40S1003K6M
$EndINDEX
$MODULE FBB04004F40S1003K6M
Po 0 0 0 15 60ca0949 00000000 ~~
Li FBB04004F40S1003K6M
Cd FBB04004-F40S1003K6M-1
Kw Connector
Sc 0
At SMD
AR 
Op 0 0 0
T0 0.000 0.425 1.27 1.27 0 0.254 N V 21 N "J**"
T1 0.000 0.425 1.27 1.27 0 0.254 N I 21 N "FBB04004F40S1003K6M"
DS -5.25 1.1 5.25 1.1 0.2 24
DS 5.25 1.1 5.25 -1.1 0.2 24
DS 5.25 -1.1 -5.25 -1.1 0.2 24
DS -5.25 -1.1 -5.25 1.1 0.2 24
DS -6.25 -2.45 6.25 -2.45 0.1 24
DS 6.25 -2.45 6.25 3.3 0.1 24
DS 6.25 3.3 -6.25 3.3 0.1 24
DS -6.25 3.3 -6.25 -2.45 0.1 24
DS -3.8 2.2 -3.8 2.2 0.2 21
DS -3.8 2.3 -3.8 2.3 0.2 21
DS -3.8 2.2 -3.8 2.2 0.2 21
DA -3.8 2.25 -3.800 2.2 -1800 0.2 21
DA -3.8 2.25 -3.800 2.3 -1800 0.2 21
DA -3.8 2.25 -3.800 2.2 -1800 0.2 21
$PAD
Po -3.800 1.2
Sh "1" R 0.230 0.500 0 0 0
At SMD N 00888000
Ne 0 ""
$EndPAD
$PAD
Po -3.800 -1.2
Sh "2" R 0.230 0.500 0 0 0
At SMD N 00888000
Ne 0 ""
$EndPAD
$PAD
Po -3.400 1.2
Sh "3" R 0.230 0.500 0 0 0
At SMD N 00888000
Ne 0 ""
$EndPAD
$PAD
Po -3.400 -1.2
Sh "4" R 0.230 0.500 0 0 0
At SMD N 00888000
Ne 0 ""
$EndPAD
$PAD
Po -3.000 1.2
Sh "5" R 0.230 0.500 0 0 0
At SMD N 00888000
Ne 0 ""
$EndPAD
$PAD
Po -3.000 -1.2
Sh "6" R 0.230 0.500 0 0 0
At SMD N 00888000
Ne 0 ""
$EndPAD
$PAD
Po -2.600 1.2
Sh "7" R 0.230 0.500 0 0 0
At SMD N 00888000
Ne 0 ""
$EndPAD
$PAD
Po -2.600 -1.2
Sh "8" R 0.230 0.500 0 0 0
At SMD N 00888000
Ne 0 ""
$EndPAD
$PAD
Po -2.200 1.2
Sh "9" R 0.230 0.500 0 0 0
At SMD N 00888000
Ne 0 ""
$EndPAD
$PAD
Po -2.200 -1.2
Sh "10" R 0.230 0.500 0 0 0
At SMD N 00888000
Ne 0 ""
$EndPAD
$PAD
Po -1.800 1.2
Sh "11" R 0.230 0.500 0 0 0
At SMD N 00888000
Ne 0 ""
$EndPAD
$PAD
Po -1.800 -1.2
Sh "12" R 0.230 0.500 0 0 0
At SMD N 00888000
Ne 0 ""
$EndPAD
$PAD
Po -1.400 1.2
Sh "13" R 0.230 0.500 0 0 0
At SMD N 00888000
Ne 0 ""
$EndPAD
$PAD
Po -1.400 -1.2
Sh "14" R 0.230 0.500 0 0 0
At SMD N 00888000
Ne 0 ""
$EndPAD
$PAD
Po -1.000 1.2
Sh "15" R 0.230 0.500 0 0 0
At SMD N 00888000
Ne 0 ""
$EndPAD
$PAD
Po -1.000 -1.2
Sh "16" R 0.230 0.500 0 0 0
At SMD N 00888000
Ne 0 ""
$EndPAD
$PAD
Po -0.600 1.2
Sh "17" R 0.230 0.500 0 0 0
At SMD N 00888000
Ne 0 ""
$EndPAD
$PAD
Po -0.600 -1.2
Sh "18" R 0.230 0.500 0 0 0
At SMD N 00888000
Ne 0 ""
$EndPAD
$PAD
Po -0.200 1.2
Sh "19" R 0.230 0.500 0 0 0
At SMD N 00888000
Ne 0 ""
$EndPAD
$PAD
Po -0.200 -1.2
Sh "20" R 0.230 0.500 0 0 0
At SMD N 00888000
Ne 0 ""
$EndPAD
$PAD
Po 0.200 1.2
Sh "21" R 0.230 0.500 0 0 0
At SMD N 00888000
Ne 0 ""
$EndPAD
$PAD
Po 0.200 -1.2
Sh "22" R 0.230 0.500 0 0 0
At SMD N 00888000
Ne 0 ""
$EndPAD
$PAD
Po 0.600 1.2
Sh "23" R 0.230 0.500 0 0 0
At SMD N 00888000
Ne 0 ""
$EndPAD
$PAD
Po 0.600 -1.2
Sh "24" R 0.230 0.500 0 0 0
At SMD N 00888000
Ne 0 ""
$EndPAD
$PAD
Po 1.000 1.2
Sh "25" R 0.230 0.500 0 0 0
At SMD N 00888000
Ne 0 ""
$EndPAD
$PAD
Po 1.000 -1.2
Sh "26" R 0.230 0.500 0 0 0
At SMD N 00888000
Ne 0 ""
$EndPAD
$PAD
Po 1.400 1.2
Sh "27" R 0.230 0.500 0 0 0
At SMD N 00888000
Ne 0 ""
$EndPAD
$PAD
Po 1.400 -1.2
Sh "28" R 0.230 0.500 0 0 0
At SMD N 00888000
Ne 0 ""
$EndPAD
$PAD
Po 1.800 1.2
Sh "29" R 0.230 0.500 0 0 0
At SMD N 00888000
Ne 0 ""
$EndPAD
$PAD
Po 1.800 -1.2
Sh "30" R 0.230 0.500 0 0 0
At SMD N 00888000
Ne 0 ""
$EndPAD
$PAD
Po 2.200 1.2
Sh "31" R 0.230 0.500 0 0 0
At SMD N 00888000
Ne 0 ""
$EndPAD
$PAD
Po 2.200 -1.2
Sh "32" R 0.230 0.500 0 0 0
At SMD N 00888000
Ne 0 ""
$EndPAD
$PAD
Po 2.600 1.2
Sh "33" R 0.230 0.500 0 0 0
At SMD N 00888000
Ne 0 ""
$EndPAD
$PAD
Po 2.600 -1.2
Sh "34" R 0.230 0.500 0 0 0
At SMD N 00888000
Ne 0 ""
$EndPAD
$PAD
Po 3.000 1.2
Sh "35" R 0.230 0.500 0 0 0
At SMD N 00888000
Ne 0 ""
$EndPAD
$PAD
Po 3.000 -1.2
Sh "36" R 0.230 0.500 0 0 0
At SMD N 00888000
Ne 0 ""
$EndPAD
$PAD
Po 3.400 1.2
Sh "37" R 0.230 0.500 0 0 0
At SMD N 00888000
Ne 0 ""
$EndPAD
$PAD
Po 3.400 -1.2
Sh "38" R 0.230 0.500 0 0 0
At SMD N 00888000
Ne 0 ""
$EndPAD
$PAD
Po 3.800 1.2
Sh "39" R 0.230 0.500 0 0 0
At SMD N 00888000
Ne 0 ""
$EndPAD
$PAD
Po 3.800 -1.2
Sh "40" R 0.230 0.500 0 0 0
At SMD N 00888000
Ne 0 ""
$EndPAD
$PAD
Po -4.800 0.99
Sh "MP1" R 0.900 0.920 0 0 0
At SMD N 00888000
Ne 0 ""
$EndPAD
$PAD
Po -4.800 -0.99
Sh "MP2" R 0.900 0.920 0 0 0
At SMD N 00888000
Ne 0 ""
$EndPAD
$PAD
Po 4.800 0.99
Sh "MP3" R 0.900 0.920 0 0 0
At SMD N 00888000
Ne 0 ""
$EndPAD
$PAD
Po 4.800 -0.99
Sh "MP4" R 0.900 0.920 0 0 0
At SMD N 00888000
Ne 0 ""
$EndPAD
$EndMODULE FBB04004F40S1003K6M
$EndLIBRARY
